Introduction to Statistics in R - 1 Summary Statistics
…
5.21
62.5975
57.3875
-80.87125
148.6788

Use filter() to get countries with a co2_emission greater than the upper cutoff or a co2_emission less than the lower cutoff.

food_consumption |> 
  filter(co2_emission > ans$upper |
         co2_emission < ans$lower)

# A tibble: 208 × 4
   country   food_category consumption co2_emission
   <chr>     <fct>               <dbl>        <dbl>
 1 Argentina beef                55.5         1712 
 2 Argentina dairy              195.           278.
 3 Australia beef                33.9         1045.
 4 Australia lamb_goat            9.87         346.
 5 Australia dairy              234.           334.
 6 Albania   beef                22.5          694.
 7 Albania   lamb_goat           15.3          536.
 8 Albania   dairy              304.           433.
 9 Iceland   beef                13.4          412.
10 Iceland   lamb_goat           21.1          740.
# ℹ 198 more rows
…
